<?xml version="1.0" encoding="utf-8"?>
<!-- Generator: Adobe Illustrator 22.0.1, SVG Export Plug-In . SVG Version: 6.00 Build 0)  -->
<svg version="1.1" id="Слой_1" xmlns="http://www.w3.org/2000/svg" xmlns:xlink="http://www.w3.org/1999/xlink" x="0px" y="0px"
	 viewBox="0 0 485.6 155.9" style="enable-background:new 0 0 485.6 155.9;" xml:space="preserve">
<style type="text/css">
	.st0{fill:#D90703;}
	.st1{fill:transparent;}
	.st2{fill:#FDFDFD;}
	.st3{fill:#DA0703;}
</style>
<path class="st0" d="M2,16.7c0-0.2,0-0.3,0-0.5c0.3-0.6,0.8-0.8,1.5-0.9c5.6-1.1,11.2-2.2,16.8-3.2c5.2-0.9,10.4-1.9,15.6-2.7
	c5.6-0.9,11.3-1.8,16.9-2.6C58,6.1,63.2,5.4,68.3,4.7c4-0.5,8.1-0.9,12.1-1.3c3.9-0.4,7.9-0.8,11.8-1.1c2.7-0.2,5.5-0.4,8.2-0.6
	c7.1-0.4,14.2-0.5,21.3-0.6c0.2,0,0.3,0,0.5-0.1c0.2,0,0.3,0,0.5,0c0.6,0.3,1.2,0.1,1.7,0.1s0.9,0,1.4,0s1,0,1.5,0
	c0.8,0,1.6,0,2.4,0c2.9,0,5.8,0,8.7,0c0.8,0,1.6,0,2.4,0c0.6,0,1.1,0,1.7,0c0.5,0,1,0,1.5,0c6.2,0,12.5,0.1,18.7,0.4
	c4.2,0.2,8.4,0.6,12.5,1.1c4.4,0.5,8.8,0.9,13.2,1.5c6.9,0.9,13.8,2,20.7,3.2c16.9,3,33.7,6.9,50.5,10.6c11.5,2.6,23.1,4.9,34.8,6.7
	c5.8,0.9,11.5,1.7,17.3,2.3c5.1,0.6,10.2,1,15.4,1.3c1.9,0.1,3.7,0.2,5.6,0.3c8.5,0.4,16.9,0.2,25.4,0.2c4.5,0,9-0.3,13.5-0.6
	c3.7-0.2,7.3-0.5,11-0.8c3.5-0.3,7.1-0.7,10.6-1.1c4-0.4,8.1-1,12.1-1.5c6-0.8,11.9-1.8,17.9-2.8c10.5-1.8,20.9-3.9,31.3-6.1
	c1.6-0.4,2.2,0,2.5,1.7c1.6,8.3,3.2,16.7,4.8,25c1.5,7.6,2.9,15.2,4.4,22.8c2.1,11.1,4.3,22.3,6.4,33.4c1.4,7.3,2.8,14.5,4.2,21.8
	c0.8,4.2,1.6,8.5,2.5,12.7c0.2,0.8,0.1,1.7,0.3,2.5c0.2,1-0.2,1.6-1.2,1.9c-3.2,1.1-6.4,2-9.6,2.9c-7.2,2.1-14.4,4-21.7,5.7
	c-9.8,2.3-19.7,4.2-29.7,5.8c-5.1,0.8-10.2,1.5-15.3,2c-3.9,0.4-7.8,0.8-11.7,1.1c-6.8,0.6-13.6,0.6-20.5,0.7
	c-4.6,0.1-9.1,0.1-13.7,0.1c-6.1-0.1-12.2-0.1-18.3-0.4c-4.6-0.2-9.1-0.6-13.7-1.1c-4.8-0.5-9.7-1-14.5-1.5
	c-5.5-0.7-10.9-1.4-16.4-2.3c-6.1-0.9-12.2-1.9-18.3-3c-5.4-0.9-10.8-1.9-16.3-3c-12.4-2.3-24.8-4.8-37.3-7.1
	c-9.8-1.9-19.7-3.6-29.6-5.2c-6.5-1-13-2-19.6-2.8c-5.4-0.7-10.8-1.3-16.2-1.8c-3.6-0.3-7.2-0.6-10.9-0.8c-4.5-0.3-9.1-0.5-13.6-0.7
	c-7.7-0.4-15.3-0.1-23-0.2c-4.5-0.1-8.9,0.3-13.4,0.5c-5.8,0.3-11.5,0.8-17.3,1.4c-5.8,0.7-11.6,1.4-17.4,2.3
	c-11.2,1.7-22.3,3.9-33.4,6.5c-2,0.5-2.4,0.2-2.8-1.9c-1.3-7.2-2.7-14.3-4.1-21.5c-1.5-7.6-2.9-15.2-4.4-22.8
	c-2.1-11.1-4.3-22.2-6.4-33.3c-1.5-7.6-2.9-15.3-4.4-22.9c-0.8-4.2-1.6-8.5-2.4-12.7C2.3,20.2,2.4,18.4,2,16.7z"/>
<path class="st1" d="M2,16.7c0.8,2.2,1,4.5,1.4,6.7c1.8,9,3.5,18,5.2,27.1c1.7,8.9,3.4,17.9,5.1,26.8c1.8,9.4,3.6,18.7,5.4,28.1
	c1.8,9.3,3.6,18.7,5.4,28c0,0.2,0.1,0.4,0.1,0.6c0.3,0.9,0,2.3,0.7,2.6c0.7,0.3,1.8-0.2,2.7-0.5c10.6-2.5,21.2-4.6,32-6.2
	c7.9-1.2,15.8-2.1,23.7-2.9c14.9-1.4,29.8-1.7,44.7-1.4c7.7,0.2,15.5,0.7,23.2,1.3c5.9,0.5,11.8,1.1,17.7,1.8
	c8.7,1.1,17.3,2.3,25.9,3.7c9.3,1.5,18.5,3.2,27.7,4.9c8.9,1.7,17.7,3.4,26.6,5.1c8.1,1.5,16.1,3,24.2,4.5
	c6.6,1.2,13.2,2.3,19.8,3.3c6.3,1,12.5,1.8,18.8,2.5c7.2,0.8,14.4,1.6,21.6,2.1c12,0.8,24,1.2,36,0.9c6.1-0.2,12.1-0.4,18.2-0.8
	c5.5-0.4,10.9-0.9,16.3-1.6c9.8-1.1,19.6-2.7,29.3-4.6c15.1-3,30-6.9,44.8-11.6c0.6-0.2,0.7-0.5,0.6-1.1
	c-2.4-12.4-4.8-24.8-7.1-37.1c-2.3-11.9-4.6-23.7-6.9-35.6c-2.7-13.9-5.3-27.9-8-41.8c-0.3-1.5-0.7-3-0.9-4.4
	c-0.1-0.8-0.4-0.8-1-0.7c-5.8,1.2-11.7,2.5-17.5,3.7c-7,1.4-14,2.6-21,3.7c-5.9,0.9-11.8,1.8-17.7,2.5c-4.8,0.6-9.6,1-14.4,1.5
	c-6.2,0.7-12.4,1.1-18.6,1.4c-7.7,0.4-15.3,0.4-23,0.3c-7.5-0.1-14.9-0.4-22.4-1.1c-13.2-1.1-26.2-3-39.2-5.4
	c-15.1-2.8-30-6.3-45-9.6c-11.2-2.4-22.5-4.7-33.8-6.6c-7.1-1.2-14.3-2.2-21.4-3C174.5,3,167.7,2.4,160.9,2
	c-5.6-0.3-11.2-0.6-16.8-0.7c-0.2-0.1-0.2-0.1,0-0.2c111.6,0,223.1,0,334.7,0c0.9,0,1.1,0.2,1.1,1.1c0,51,0,101.9,0,152.9
	c0,0.9-0.2,1.1-1.1,1.1c-158.6,0-317.1,0-475.7,0c-0.9,0-1.1-0.2-1.1-1.1C2,109,2,62.9,2,16.7z"/>
<path class="st1" d="M122.3,1.1c-0.1,0.3-0.3,0.2-0.5,0.2c-4.5,0-8.9,0.3-13.4,0.5c-5.5,0.3-11.1,0.6-16.6,1.1
	c-4.6,0.4-9.3,0.8-13.9,1.3c-4.4,0.5-8.9,1-13.3,1.5c-5,0.6-9.9,1.3-14.9,2.1C43.8,8.7,38,9.5,32.1,10.5c-7.3,1.3-14.6,2.6-22,4
	c-2.7,0.5-5.4,0.9-8,1.7c0-4.7,0-9.4,0-14c0-0.9,0.2-1.1,1.1-1.1c25.4,0,50.8,0,76.3,0C93.7,1.1,108,1.1,122.3,1.1z"/>
<path class="st2" d="M207.7,75c1.2-3.4,2.3-6.5,3.4-9.6c2.9-8.2,5.8-16.5,8.7-24.7c0.2-0.7,0.5-1,1.3-1c7.8,0,15.5,0,23.3,0
	c0.9,0,1,0.3,1,1.1c-0.1,22.9-0.2,45.8-0.2,68.8c0,0.8-0.2,1-1,1c-5.8,0-11.7,0-17.5,0c-1,0-1.2-0.3-1.2-1.2c0-10.6,0-21.1,0-31.7
	c0-0.4,0-0.8-0.2-1.3c-1,2.7-1.9,5.3-2.9,8c-3.1,8.5-6.1,16.9-9.1,25.4c-0.3,0.7-0.6,0.9-1.4,0.9c-2.8,0-5.5,0-8.3,0
	c-0.8,0-1.2-0.3-1.4-1c-3.9-10.8-7.8-21.6-11.8-32.3c-0.1-0.3-0.2-0.5-0.5-0.8c0,0.4,0,0.8,0,1.2c0,10.5,0,21,0.1,31.6
	c0,1.2-0.3,1.4-1.5,1.4c-5.5-0.1-11-0.2-16.6-0.2c-0.8,0-1-0.2-1-1c0-22.9-0.1-45.8-0.2-68.6c0-0.8,0.2-1,1-1c7.6,0,15.1,0,22.7-0.1
	c0.8,0,1,0.4,1.3,1C199.7,52.2,203.6,63.4,207.7,75z"/>
<path class="st2" d="M381,110.4c-6.5,0-12.9,0-19.3,0c-0.7,0-0.9-0.4-1-0.9c-1.1-3.2-2.2-6.4-3.3-9.6c-0.3-0.8-0.7-1.1-1.5-1.1
	c-6.6,0.1-13.3,0.1-19.9,0.1c-1,0-1.4,0.3-1.7,1.2c-1,3.2-2.1,6.3-3.2,9.5c-0.2,0.7-0.5,0.9-1.3,0.9c-6,0-12.1,0-18.1,0.1
	c-0.8,0-1-0.1-0.7-0.9c6.2-18.3,12.4-36.7,18.6-55c1.6-4.8,3.3-9.6,4.9-14.4c0.2-0.7,0.5-0.9,1.2-0.9c6.9,0,13.8,0,20.8-0.1
	c0.8,0,1.1,0.3,1.3,1c7.7,23.1,15.3,46.2,23,69.2C380.8,109.6,380.9,109.9,381,110.4z"/>
<path class="st2" d="M55.6,86.1c2.9,0,5.8,0,8.6,0c0.8,0,1.1,0.2,1.4,0.9c1.5,3.2,3.3,6.1,6.4,8c3.4,2.1,8.4,1.6,11-1.3
	c2.5-2.8,2.6-6.7-1.4-9.5C79,82.4,76,81.7,73,80.9c-4.7-1.2-9.4-2.6-13.9-4.6c-6.2-2.8-9.5-7.7-11.1-14.1c-2.2-9.2,3.5-16.5,9.6-20
	c5-2.8,10.4-4,16.1-4.1c7.4-0.1,14.3,1.4,20.5,5.6c4.4,3,7.6,6.9,8.8,12.2c0.3,1.3,0.4,2.6,0.5,3.9c0,0.5-0.2,0.5-0.5,0.5
	c-5.2,0.1-10.4,0.1-15.6,0.2c-0.6,0-0.7-0.4-0.8-0.8c-1.9-5.5-8.7-8.4-13.9-5.9c-3.1,1.4-4.9,4.8-4,7.8c0.5,1.8,1.8,3,3.6,3.7
	c4.1,1.6,8.3,2.8,12.6,3.3c7.2,0.8,13.2,3.8,18.1,9.1c3,3.2,4.2,7.1,4.2,11.5c0,5.3-1.5,10-5.3,13.8c-2.7,2.7-6.1,4.4-9.7,5.6
	c-6.8,2.2-13.8,2.6-20.9,2.4c-6.3-0.1-12-1.9-16.9-5.9c-4.4-3.6-6.9-8.3-8.1-13.7C46,90,45.8,88.5,45.7,87c-0.1-0.8,0.1-0.9,0.9-0.9
	C49.6,86.1,52.5,86.1,55.6,86.1C55.6,86,55.6,86,55.6,86.1z"/>
<path class="st2" d="M256.4,75.1c0-11.5,0-23,0-34.6c0-0.7,0-1.2,1-1.1c12.3,0.1,24.6,0.2,36.9,0.2c4.4,0,8.5,0.8,12.1,3.3
	c6.6,4.6,10.5,10.9,10.2,19.1c-0.2,6.6-2.3,12.6-7.2,17.3c-3.7,3.5-8.2,5.2-13.3,5.3c-5.8,0-11.5-0.1-17.3-0.3
	c-0.9,0-1.2,0.2-1.2,1.2c0.1,8,0.1,15.9,0.2,23.9c0,0.8-0.1,1.2-1.1,1.2c-6.5,0-13,0.1-19.4,0.3c-0.9,0-1.1-0.3-1.1-1.1
	c0-11.6,0-23.1,0-34.7C256.3,75.1,256.4,75.1,256.4,75.1z"/>
<path class="st2" d="M114.9,75.3c0-11.4,0-22.7,0-34.1c0-1,0.3-1.2,1.3-1.2c14.5,0,29,0,43.4,0c0.8,0,1.2,0.1,1.2,1.1
	c0,3.8,0,7.7,0.1,11.5c0,1-0.3,1.1-1.2,1.1c-7.4,0-14.8,0-22.2,0c-1,0-1.4,0.2-1.3,1.3c0.1,4.2,0.1,8.5,0,12.7
	c0,1.2,0.4,1.3,1.4,1.3c7.4,0,14.7,0.1,22.1,0.2c1,0,1.4,0.2,1.3,1.3c-0.1,3.6-0.1,7.1,0,10.7c0,0.9-0.2,1.1-1.1,1.1
	c-7.5-0.1-15-0.2-22.4-0.3c-0.9,0-1.2,0.1-1.2,1.1c0.1,4.3,0.1,8.6,0,12.8c0,1.1,0.3,1.2,1.3,1.2c7.4,0,14.9,0,22.3,0
	c0.9,0,1.2,0.2,1.2,1.1c-0.1,3.8-0.1,7.5,0,11.3c0,0.9-0.2,1-1.1,1c-14.6,0-29.3,0-43.9,0c-1,0-1.2-0.3-1.2-1.2
	c0-11.4,0-22.7,0-34.1C114.9,75.3,114.9,75.3,114.9,75.3z"/>
<path class="st2" d="M389.8,75.1c0-11.5,0-23,0-34.4c0-1,0.3-1.2,1.2-1.2c6.8,0,13.7,0,20.5,0c0.9,0,1.2,0.2,1.2,1.2
	c-0.1,17.4-0.1,34.9-0.2,52.3c0,1.2,0.2,1.5,1.5,1.5c7.2-0.1,14.5-0.1,21.7-0.1c0.9,0,1.2,0.2,1.2,1.2c0,4.7,0,9.4,0,14
	c0,0.8-0.2,1-1,1c-15.1,0-30.2,0-45.4,0c-0.9,0-1-0.4-1-1.1c0-11.5,0-23,0-34.4C389.7,75.1,389.8,75.1,389.8,75.1z"/>
<path class="st3" d="M345.7,65.6c2.2,6.3,4.2,12.2,6.3,18.2c-4.1,0-8.2,0-12.4,0C341.6,77.9,343.6,71.9,345.7,65.6z"/>
<path class="st3" d="M277.3,62.1c0-2.6,0-5.1,0-7.7c0-0.7,0.2-1,0.9-1c3.1,0,6.2,0,9.2,0c3.5,0,6.6,2.5,7.8,6.1c1.1,3.3-0.2,6.9-3,9
	c-1.8,1.3-3.8,1.9-6,2c-2.6,0-5.2,0.1-7.8,0.3c-0.8,0-1.1-0.1-1.1-1C277.4,67.2,277.3,64.7,277.3,62.1
	C277.3,62.1,277.3,62.1,277.3,62.1z"/>
</svg>
