<?xml version="1.0" encoding="utf-8"?>
<!-- Generator: Adobe Illustrator 22.0.1, SVG Export Plug-In . SVG Version: 6.00 Build 0)  -->
<svg version="1.1" id="Capa_1" xmlns="http://www.w3.org/2000/svg" xmlns:xlink="http://www.w3.org/1999/xlink" x="0px" y="0px"
	 viewBox="77.4 -43.8 443.3 512" style="enable-background:new 77.4 -43.8 443.3 512;" xml:space="preserve">
<style type="text/css">
	.st0{fill:#33a9a1;}
</style>
<g>
	<g>
		<path class="st0" d="M520.6,65.1c-0.6-1.9-0.6-3.1-1.3-4.4c-0.6-1.3-1.3-2.5-1.9-3.8c-0.6-1.3-1.9-1.9-3.1-2.5l-69-33.9L384.6-8.9
			l-69-33.9c-2.5-1.3-5-1.3-7.5-0.6c-2.5,0.6-4.4,2.5-5.6,5l-86.5,176.2H103.1c-14.4,0-25.7,11.3-25.7,25.7v45.1v233.9
			c0,14.4,11.3,25.7,25.7,25.7h360.5c14.4,0,25.7-11.3,25.7-25.7v-65.2h10.7c5.6,0,10-4.4,10-10v-74.6c0-5.6-4.4-10-10-10h-10.7
			v-73.4c0-14.4-11.3-25.7-25.7-25.7h-0.6l56.4-114.7C520,67.6,520,66.3,520.6,65.1z M315.6-20.2l50.2,24.5
			c-12.5,16.9-32.6,27.6-53.9,27.6c-6.9,0-13.8-1.3-20.1-3.1L315.6-20.2z M281.8,46.9c9.4,3.1,18.8,5,28.8,5
			c29.5,0,56.4-14.4,72.1-38.9L427.2,35c-12.5,37.6,2.5,79,35.7,100.3l-23.2,47.6h-56.4v0.6c-6.3-17.6-18.8-32-35.7-40.1
			c-10-5-20.7-7.5-31.3-7.5c-27.6,0-52,15.7-64.6,40.1c-1.3,2.5-1.9,4.4-3.1,6.9h-33.2L281.8,46.9z M362,183.6h-90.9
			c8.8-16.9,26.3-27,45.8-27c8.2,0,15.7,1.9,22.6,5C349.5,166.6,357,174.2,362,183.6z M97.4,162.9c0-2.5,2.5-5,5.6-5h102.8
			l-12.5,25.1h-90.3c-1.9,0-3.8,0-5.6,0.6V162.9z M489.3,302.7h0.6v54.5h-0.6h-58.9c-5.6,0-10-4.4-10-10v-34.5c0-5.6,4.4-10,10-10
			L489.3,302.7L489.3,302.7z M468.6,209.3v73.4h-38.9c-16.9,0-30.1,13.8-30.1,30.1v34.5c0,16.9,13.8,30.1,30.1,30.1h38.9v65.2
			c0,3.1-2.5,5.6-5.6,5.6H103.1c-3.1,0-5.6-2.5-5.6-5.6V209.3c0-3.1,2.5-5.6,5.6-5.6h97.2h56.4h119.7h70.2h16.3
			C466.1,203.6,468.6,206.1,468.6,209.3z M473,117.7c-23.2-16.3-33.9-46.4-26.3-73.4l50.2,24.5L473,117.7z"/>
	</g>
</g>
</svg>
