<?xml version="1.0" encoding="utf-8"?>
<!-- Generator: Adobe Illustrator 22.0.1, SVG Export Plug-In . SVG Version: 6.00 Build 0)  -->
<svg version="1.1" id="Layer_1" xmlns="http://www.w3.org/2000/svg" xmlns:xlink="http://www.w3.org/1999/xlink" x="0px" y="0px"
	 viewBox="43 -25.7 512 475.9" style="enable-background:new 43 -25.7 512 475.9;" xml:space="preserve">
<style type="text/css">
	.st0{fill:#00A99D;}
</style>
<g>
	<g>
		<g>
			<path class="st0" d="M254.7,324.1c-6.8-1.8-13.8,2.2-15.6,9c-2.9,10.8-8.7,20.7-16.6,28.6c-12.2,12.2-28.3,18.9-45.5,18.9
				c-17.2,0-33.4-6.7-45.5-18.9c-12.2-12.2-18.9-28.3-18.9-45.5c0-17.2,6.7-33.4,18.9-45.5c22.5-22.5,58.7-25.1,84.1-6
				c5.6,4.2,13.6,3.1,17.9-2.5c4.2-5.6,3.1-13.6-2.5-17.9c-35.5-26.7-86-23.1-117.5,8.4c-17,17-26.3,39.5-26.3,63.5
				c0,24,9.3,46.6,26.3,63.5c17,17,39.5,26.3,63.5,26.3c24,0,46.6-9.3,63.5-26.3c11.1-11.1,19.1-24.9,23.2-40
				C265.5,333,261.5,326,254.7,324.1z"/>
		</g>
	</g>
	<g>
		<g>
			<path class="st0" d="M262.3,288L262.3,288c-2.3-6.8-9.5-10.3-16.2-8.1c-6.7,2.2-10.3,9.5-8.1,16.2c1.8,5.3,6.8,8.7,12.1,8.7
				c1.3,0,2.7-0.2,4-0.7C260.9,301.9,264.5,294.7,262.3,288z"/>
		</g>
	</g>
	<g>
		<g>
			<path class="st0" d="M551.3,86.2l-45.1-45.1l9-9c2.4-2.4,3.7-5.6,3.7-9c0-3.4-1.3-6.6-3.7-9L479.1-22c-2.4-2.4-5.6-3.7-9-3.7
				s-6.6,1.3-9,3.7l-45,45c-5,5-5,13.1,0,18c5,5,13.1,5,18,0l36-36l18,18l-9,9c-2.4,2.4-3.7,5.6-3.7,9c0,3.4,1.3,6.6,3.7,9
				l45.1,45.1l-18,18l-45.1-45.1c-5-5-13.1-5-18,0l-36.1,36.1c-5,5-5,13.1,0,18l27.1,27.1l-18,18l-27.1-27.1c-5-5-13.1-5-18,0
				L269.7,241.5c-4.3,4.3-5,10.9-1.7,16c27.6,42.6,21.5,99.6-14.4,135.5c-20.5,20.5-47.7,31.8-76.7,31.8c-29,0-56.2-11.3-76.7-31.8
				c-20.5-20.5-31.8-47.7-31.8-76.7c0-29,11.3-56.2,31.8-76.7c35.9-35.9,92.9-42,135.5-14.4c5,3.3,11.7,2.6,15.9-1.7L400.8,74.4
				c5-5,5-13.1,0-18c-5-5-13.1-5-18,0L240.7,198.4c-23.4-12.6-50.4-18.1-77.1-15.4c-30.6,3.1-59.5,16.8-81.3,38.6
				C56.9,246.8,43,280.5,43,316.3c0,35.8,13.9,69.4,39.2,94.7c26.1,26.1,60.4,39.2,94.7,39.2c34.3,0,68.6-13.1,94.7-39.2
				c21.8-21.8,35.5-50.7,38.6-81.3c2.7-26.7-2.8-53.7-15.4-77.1l85.1-85.1l27.1,27.1c5,5,13.1,5,18,0l36.1-36.1c5-5,5-13.1,0-18
				L434,113.3l18-18l45.1,45.1c5,5,13.1,5,18,0l36.1-36.1C556.2,99.3,556.2,91.2,551.3,86.2z"/>
		</g>
	</g>
</g>
</svg>
