<?xml version="1.0" encoding="utf-8"?>
<!-- Generator: Adobe Illustrator 23.0.0, SVG Export Plug-In . SVG Version: 6.00 Build 0)  -->
<svg version="1.1" id="Layer_1" xmlns="http://www.w3.org/2000/svg" xmlns:xlink="http://www.w3.org/1999/xlink" x="0px" y="0px"
	 viewBox="0 0 512 512" style="enable-background:new 0 0 512 512;" xml:space="preserve">
<style type="text/css">
	.st0{opacity:0.2;}
	.st1{fill:#FFFFFF;}
</style>
<g class="st0">
	<g>
		<path class="st1" d="M256,0C114.4,0,0,114.4,0,256s114.4,256,256,256s256-114.4,256-256S397.6,0,256,0z M256,481.9
			C132.5,481.9,30.1,379.5,30.1,256S132.5,30.1,256,30.1S481.9,132.5,481.9,256S379.5,481.9,256,481.9z"/>
		<path class="st1" d="M319.2,201.8c0,9,6,15.1,15.1,15.1c9,0,15.1-6,15.1-15.1c0-35.2-34.2-62.9-78.3-68.2v-13.1
			c0-9-6-15.1-15.1-15.1c-9,0-15.1,6-15.1,15.1v13.2c-44.1,5.3-78.3,32.9-78.3,68.2s34.2,62.9,78.3,68.2v78
			c-26.6-4.4-48.2-20-48.2-37.8c0-9-6-15.1-15.1-15.1c-9,0-15.1,6-15.1,15.1c0,35.2,34.2,62.9,78.3,68.2v13.2c0,9,6,15.1,15.1,15.1
			c9,0,15.1-6,15.1-15.1v-13.2c44.1-5.3,78.3-32.9,78.3-68.2s-34.2-62.9-78.3-68.2v-78C297.7,168.4,319.2,184,319.2,201.8
			L319.2,201.8z M192.8,201.8c0-17.8,21.6-33.3,48.2-37.8v75.5C214.3,235.1,192.8,219.6,192.8,201.8L192.8,201.8z M319.2,310.2
			c0,17.8-21.6,33.3-48.2,37.8v-75.5C297.7,276.9,319.2,292.4,319.2,310.2z"/>
	</g>
</g>
</svg>
