<?xml version="1.0" encoding="utf-8"?>
<!-- Generator: Adobe Illustrator 23.0.0, SVG Export Plug-In . SVG Version: 6.00 Build 0)  -->
<svg version="1.1" id="Capa_1" xmlns="http://www.w3.org/2000/svg" xmlns:xlink="http://www.w3.org/1999/xlink" x="0px" y="0px"
	 viewBox="0 0 379.3 512" style="enable-background:new 0 0 379.3 512;" xml:space="preserve">
<style type="text/css">
	.st0{opacity:0.2;}
	.st1{fill:#0C5C63;}
</style>
<g class="st0">
	<path class="st1" d="M371.9,62.1c-149.7,0-175-56.8-175.3-57.4c-1.1-2.8-3.8-4.6-6.9-4.7c0,0,0,0-0.1,0c-3,0-5.7,1.9-6.9,4.6
		c-0.2,0.6-26.1,57.5-175.3,57.5c-4.2,0-7.5,3.4-7.5,7.4v254.7c0,104.2,179.1,183.9,186.6,187.2c1,0.4,2,0.6,3,0.6s2-0.2,3-0.6
		c7.6-3.3,186.7-83,186.7-187.2V69.5C379.4,65.4,376,62.1,371.9,62.1z M338.2,309.4C338.2,391,198,453.4,192,456
		c-0.7,0.4-1.6,0.5-2.3,0.5c-0.8,0-1.6-0.1-2.4-0.5c-5.9-2.6-146.1-65-146.1-146.6V110c0-3.2,2.6-5.9,5.8-5.9
		c116.8,0,137-44.5,137.2-45c0.9-2.1,3-3.6,5.4-3.6h0.1c2.4,0,4.5,1.5,5.4,3.7c0.2,0.4,20,44.9,137.2,44.9c3.2,0,5.8,2.6,5.8,5.9
		C338.2,110,338.2,309.4,338.2,309.4z M310.2,307.2c0,66.3-113.8,116.9-118.7,118.9c-0.6,0.3-1.3,0.4-1.9,0.4
		c-0.7,0-1.9-325.4,0-325.4l0,0c2,0,3.7,1.2,4.4,3c0.1,0.3,16.3,36.4,111.4,36.4c2.6,0,4.8,2.1,4.8,4.7L310.2,307.2L310.2,307.2z"/>
</g>
</svg>
