<?xml version="1.0" encoding="utf-8"?>
<!-- Generator: Adobe Illustrator 23.0.0, SVG Export Plug-In . SVG Version: 6.00 Build 0)  -->
<svg version="1.1" id="Capa_1" xmlns="http://www.w3.org/2000/svg" xmlns:xlink="http://www.w3.org/1999/xlink" x="0px" y="0px"
	 viewBox="0 0 512 512" style="enable-background:new 0 0 512 512;" xml:space="preserve">
<style type="text/css">
	.st0{opacity:0.2;}
	.st1{fill:#0C5C63;}
</style>
<g class="st0">
	<g id="Target">
		<g>
			<path class="st1" d="M496,240h-16.8C471.3,129.3,382.8,40.7,272,32.8V16c0-8.8-7.2-16-16-16s-16,7.2-16,16v16.8
				C129.2,40.7,40.7,129.3,32.8,240H16c-8.8,0-16,7.2-16,16c0,8.8,7.2,16,16,16h16.8c7.9,110.8,96.4,199.3,207.2,207.2V496
				c0,8.8,7.2,16,16,16s16-7.2,16-16v-16.8c110.8-7.9,199.3-96.4,207.2-207.2H496c8.8,0,16-7.2,16-16C512,247.2,504.8,240,496,240z
				 M416,272h31.2c-7.7,93.1-82.1,167.5-175.2,175.2V416c0-8.8-7.2-16-16-16s-16,7.2-16,16v31.2C146.9,439.5,72.5,365.1,64.8,272H96
				c8.8,0,16-7.2,16-16c0-8.8-7.2-16-16-16H64.8C72.5,146.9,146.9,72.5,240,64.8V96c0,8.8,7.2,16,16,16s16-7.2,16-16V64.8
				c93.1,7.7,167.5,82.1,175.2,175.2H416c-8.8,0-16,7.2-16,16C400,264.8,407.2,272,416,272z M304,256c0-26.4-21.5-48-48-48
				s-48,21.6-48,48c0,26.5,21.5,48,48,48S304,282.5,304,256z M240,256c0-8.8,7.2-16,16-16s16,7.2,16,16c0,8.8-7.2,16-16,16
				S240,264.8,240,256z M272,160c0-8.8-7.2-16-16-16c-61.7,0-112,50.2-112,112c0,8.8,7.2,16,16,16s16-7.2,16-16
				c0-44.1,35.9-80,80-80C264.8,176,272,168.8,272,160z M352,240c-8.8,0-16,7.2-16,16c0,44.1-35.9,80-80,80c-8.8,0-16,7.2-16,16
				s7.2,16,16,16c61.7,0,112-50.3,112-112C368,247.2,360.8,240,352,240z"/>
		</g>
	</g>
</g>
</svg>
