<?xml version="1.0" standalone="no"?>
<!DOCTYPE svg PUBLIC "-//W3C//DTD SVG 20010904//EN"
 "http://www.w3.org/TR/2001/REC-SVG-20010904/DTD/svg10.dtd">
<svg version="1.0" xmlns="http://www.w3.org/2000/svg"
 width="700.000000pt" height="700.000000pt" viewBox="0 0 700.000000 700.000000"
 preserveAspectRatio="xMidYMid meet">
<metadata>
Created by potrace 1.11, written by Peter Selinger 2001-2013
</metadata>
<g transform="translate(0.000000,700.000000) scale(0.100000,-0.100000)"
fill="#000000" stroke="none">
<path d="M0 3500 l0 -3500 3500 0 3500 0 0 3500 0 3500 -3500 0 -3500 0 0
-3500z m3785 2526 c379 -61 667 -170 950 -358 399 -266 608 -603 655 -1050 7
-71 6 -96 -3 -105 -9 -9 -156 -13 -581 -15 -497 -3 -570 -1 -577 12 -4 8 -26
53 -48 100 -86 182 -245 315 -455 379 -293 90 -614 -32 -734 -279 -36 -73 -37
-79 -37 -185 0 -105 2 -114 33 -177 36 -74 98 -136 172 -173 25 -12 104 -43
175 -68 269 -95 429 -135 735 -183 373 -58 566 -118 792 -245 230 -131 483
-350 597 -518 151 -222 212 -483 190 -806 -25 -354 -144 -621 -380 -856 -82
-80 -244 -196 -353 -251 -253 -128 -600 -223 -971 -267 -259 -31 -695 -41
-940 -21 -444 36 -788 179 -1104 459 -301 266 -494 673 -542 1139 -9 88 -9
116 0 125 9 9 169 12 659 12 356 0 659 -3 675 -8 22 -6 37 -26 78 -110 159
-317 348 -502 584 -572 79 -24 237 -24 325 -2 258 67 427 284 398 509 -21 165
-166 317 -394 412 -116 49 -227 84 -459 145 -429 114 -784 236 -1000 343 -234
117 -453 337 -575 578 -41 82 -97 229 -124 333 -94 346 -39 681 159 982 69
104 264 306 366 378 185 130 460 248 713 307 72 16 227 42 326 54 89 10 599
-3 695 -18z"/>
</g>
</svg>
