{
  "type": "service_account",
  "project_id": "sempal-215221",
  "private_key_id": "3c6a9bc62207b1bfc7a30ee06dca7deafe453963",
  "private_key": "-----BEGIN PRIVATE KEY-----\nMIIEvQIBADANBgkqhkiG9w0BAQEFAASCBKcwggSjAgEAAoIBAQCj+yRnxKVmHVtb\nyclE97SwwyQ5RzEpXJvKMnjC5ut1y2wuSvl17fF9VtS+jYd7wuYfSf3zhWByyKHZ\n9mgRu3KROrKwDWOZmQWsWl81VrnIIu9R0vw7TzjhrDgh78qh1xeh6vnCmmuZtRCO\nEGKyFeDaOmd7vY+0tfFlLswIbJMCXyuzzwRlQdAcZ7rRQGCje1x2zlJCiGS6YV9X\nSJB6hc1t1Ig+46jlt3vSaZAJw3GlD775vP9QcfiuV1KK7y8Vj7JV5zLDI6J73E9C\n43GxGWKJokFIZwLBEAOils2pYQrtzdHHBltGQhGC6rz84YzXMfhCxy5spF36YuQC\nZ7Xg906VAgMBAAECggEAASSe2thR54B8jWBpNkFccZT9UNGQY/+WGGvkpUXTI1rm\nfKYfegp4EfhueuDlWQqr7FDpjm6CFHAV7L0yeYPV0ccCeDFdCIo6sg+z390kZg2U\nSdI6LuGnqFm5JHIVoVjXUdTKUT3JUo94DOghVVN2DJ9hRElh0eUoyHHx5dHNQ97K\nGfXJLLL2G3zg00rLdkwKIlJZ63DChW+T37UKu8kGNUnWTyt6VaOdQCaDe604v9FR\nfDkUBxPR4NgjyMno9sQENRWkoI854aUXssmxR8S+bbKSMFfr6Yde6t8jMt4+ROLu\nHLKx72NPwfBCh0qs1c1Ccy0nLaMm9OmLUeSSAftpwQKBgQDYvUNO5iPYWQ2g96dK\nEGEIjqqMaUto5dHU2wGoOXEhTZpGtj8Ir3CAnviwxfxPrAPFeOdy/+WP4eReFyYn\nwHo79QNhJlTvmuP6C57aU3kgUqxMl37BNuv+rGdrR7mZkAjP/ZQJCyA+w+458AzX\nvEXJzacmyCNOA/TkkW/j7H6WoQKBgQDBr1jrTSrHObGIDky77bJSlWYK5Fhe0H0/\nm8x/X5IDpmm9d5PP30KnRqA+JHf5UsNUQvhWhj5aymJaA7GhnlFYP4mqdZHWWS+e\nOcHkKNfn7tveUuNxYvE95CD2OZ6WL203C2YyzaBjLw1vaG6ltSkfLSbt46RQRtf3\nWd4BRxQXdQKBgBLNECqm8hMRXopJEVzuYMxyO78kXyNBVFtniBREr1iZN7nMk1k4\nhsTRhXcoJYPvwv/9Re6G3i4GBV5YGbo3CyNqVJm3zoReZkpJecUsmoRAR6v5NEik\ncAJOiEYZGbOFeA46y/2g1nI7Ys3p0eNg9JjV2xsVH2LkGvk82HzoBe8hAoGBAIb9\nGtAEHEh14VGeBcUEyT/deB0nQJ/0Vxa6EzDC/xUkKpYufQpn5CCJjK1C5YsTL6fO\ndR54uYS1gQ6TfH3TxYXn4p63CkmGJzXzszq9bJztULgGtRYVi2VDVeXGCs1JiKjQ\nfQ3zWlFGPerjshozxNFButwZyC9a8LIoJB5n14zxAoGAUXVqKKSP0sISLJ/iUEYc\nd01zWLCqN+LaiJKAv4+yDaWdWEQ5BwrYPIkwKC/vyvKSCJLFD9+jzLitJ2UEllBv\n2HtEV+rgy0ihDwutYjr30lVfecG2Yh7KgYtTQ8zbfNDfqPlgdAUOqe3MKNBRtjQu\nFytiSNlANQyV92S2XmKHHYQ=\n-----END PRIVATE KEY-----\n",
  "client_email": "sempal@sempal-215221.iam.gserviceaccount.com",
  "client_id": "117973828273352486538",
  "auth_uri": "https://accounts.google.com/o/oauth2/auth",
  "token_uri": "https://oauth2.googleapis.com/token",
  "auth_provider_x509_cert_url": "https://www.googleapis.com/oauth2/v1/certs",
  "client_x509_cert_url": "https://www.googleapis.com/robot/v1/metadata/x509/sempal%40sempal-215221.iam.gserviceaccount.com"
}
